(footprint "284512-2" (version 20211014) (generator pcbnew)
  (layer "F.Cu")
  (tedit 0)
  (attr through_hole)
  (fp_text reference "REF**" (at 0 -3 unlocked) (layer "F.SilkS")
    (effects (font (size 1 1) (thickness 0.15)))
    (tstamp da364076-6b80-46e9-ba80-025fbadb08e6)
  )
  (fp_text value "284512-2" (at 1.5 9.5 unlocked) (layer "F.Fab")
    (effects (font (size 1 1) (thickness 0.15)))
    (tstamp 0bbfc023-1dfa-4678-9bee-6521e0fbb4d4)
  )
  (fp_text user "${REFERENCE}" (at 2 7 unlocked) (layer "F.Fab")
    (effects (font (size 1 1) (thickness 0.15)))
    (tstamp 65f6c95f-9302-42a5-b605-6b2a3dc98182)
  )
  (fp_line (start -2.35 -1.3) (end 5.85 -1.3) (layer "F.SilkS") (width 0.12) (tstamp 45f7dbc1-e98a-44a6-b3f8-da8c39e4ccd7))
  (fp_line (start -2.35 7.5) (end -2.35 -1.3) (layer "F.SilkS") (width 0.12) (tstamp 8df11a96-d883-4f62-a098-4a551badb5ef))
  (fp_line (start 5.85 -1.3) (end 5.85 7.5) (layer "F.SilkS") (width 0.12) (tstamp b1400afa-34f3-4057-8357-4042fba12cdd))
  (fp_line (start -2.3 -1.8) (end 2 -1.8) (layer "F.SilkS") (width 0.12) (tstamp bcde3715-b461-4871-acc5-7822a7bd7119))
  (fp_rect (start -3.1 -2) (end 6.7 8.4) (layer "F.CrtYd") (width 0.12) (fill none) (tstamp 8967496b-c4cd-4ad2-a6b4-3172d0cf8efb))
  (fp_rect (start -2.25 -1.2) (end 5.75 8) (layer "F.Fab") (width 0.1) (fill none) (tstamp 2d95f159-d984-4e83-9937-321588919b93))
  (pad "1" thru_hole roundrect (at 0 0) (size 1.6 2.4) (drill 1.2) (layers *.Cu *.Mask) (roundrect_rratio 0.25) (tstamp 562d8a2a-f7cb-49f6-a81c-f01e3db34724))
  (pad "2" thru_hole oval (at 3.5 0) (size 1.6 2.4) (drill 1.2) (layers *.Cu *.Mask) (tstamp a7dee3d3-a743-45db-8602-990302864e4a))
  (model "${KIPRJMOD}/c-284512-2-c-3d.stp"
    (offset (xyz 1.75 -8 3))
    (scale (xyz 1 1 1))
    (rotate (xyz -90 0 0))
  )
)
