(footprint "TSM102A2" (version 20211014) (generator pcbnew)
  (layer "F.Cu")
  (tedit 0)
  (attr through_hole)
  (fp_text reference "REF**" (at 0 -5.5 unlocked) (layer "F.SilkS")
    (effects (font (size 1 1) (thickness 0.15)))
    (tstamp a0ca0c74-33b7-423a-af4b-aadf9ad0f6f5)
  )
  (fp_text value "TSM102A2" (at 0 5.5 unlocked) (layer "F.Fab")
    (effects (font (size 1 1) (thickness 0.15)))
    (tstamp 7392275c-0ad5-4a82-9f8f-b8a1a7af3807)
  )
  (fp_text user "${REFERENCE}" (at 0 7 unlocked) (layer "F.Fab")
    (effects (font (size 1 1) (thickness 0.15)))
    (tstamp 05aba5a2-e31a-4c8a-8ea9-dd20181ba5a2)
  )
  (fp_rect (start -6.7 -4.05) (end 6.7 4.05) (layer "F.SilkS") (width 0.1) (fill none) (tstamp 3acc919c-425d-47fc-9166-394592222dc4))
  (fp_rect (start -7 -4.5) (end 7 4.5) (layer "F.CrtYd") (width 0.05) (fill none) (tstamp 11378d51-b684-4d67-a330-f740510fbb2e))
  (fp_rect (start -6.6 -3.95) (end 6.6 3.95) (layer "F.Fab") (width 0.1) (fill none) (tstamp e0dc01ad-94e9-4a4b-be8c-e31c98125a18))
  (pad "1" thru_hole circle (at -4.7 0) (size 2.6 2.6) (drill 1.5) (layers *.Cu *.Mask) (tstamp a60267ce-7b6a-4da8-ba1b-4413dfa22a1d))
  (pad "2" thru_hole circle (at 0 0) (size 2.6 2.6) (drill 1.5) (layers *.Cu *.Mask) (tstamp 5ffad366-ab10-4176-84c7-ab12efedb4f4))
  (pad "3" thru_hole circle (at 4.7 0) (size 2.6 2.6) (drill 1.5) (layers *.Cu *.Mask) (tstamp c4c1a9e9-2732-41ec-97de-80e0b770d188))
  (model "${KIPRJMOD}/ TSM102A2.step"
    (offset (xyz 0 0 0))
    (scale (xyz 1 1 1))
    (rotate (xyz 0 0 0))
  )
)
