(footprint "USB-B-S-RA-TSMT" (version 20211014) (generator pcbnew)
  (layer "F.Cu")
  (tedit 0)
  (attr smd)
  (fp_text reference "REF**" (at 5 -9 unlocked) (layer "F.SilkS")
    (effects (font (size 1 1) (thickness 0.15)))
    (tstamp ac7a16f0-9e89-4d7d-96ec-315cd3ba53a9)
  )
  (fp_text value "USB-B-S-RA-TSMT" (at 0 9.5 unlocked) (layer "F.Fab")
    (effects (font (size 1 1) (thickness 0.15)))
    (tstamp 8b439e40-c837-4f8d-8165-aa6d5b1e4065)
  )
  (fp_text user "${REFERENCE}" (at 0 0 unlocked) (layer "F.Fab")
    (effects (font (size 1 1) (thickness 0.15)))
    (tstamp b83ec7ca-8d13-4ca7-b9c8-23f579dd2e52)
  )
  (fp_line (start 2.6 -8.1) (end 6.1 -8.1) (layer "F.SilkS") (width 0.12) (tstamp 14914188-23e6-490a-ae28-2f274da9499e))
  (fp_line (start 6.1 -8.1) (end 6.1 -5.1) (layer "F.SilkS") (width 0.12) (tstamp 2ffa1dfe-2d78-4ba2-804a-0871b4eb6678))
  (fp_line (start -6.1 -5.1) (end -6.1 -8.1) (layer "F.SilkS") (width 0.12) (tstamp 72440dc4-c4b7-4812-a763-50d8f46ce71c))
  (fp_line (start -2.6 -8.1) (end -6.1 -8.1) (layer "F.SilkS") (width 0.12) (tstamp 97fa505d-bbb5-43d0-bb52-33390826fd25))
  (fp_line (start 6.1 2) (end 6.1 7.5) (layer "F.SilkS") (width 0.12) (tstamp b54d2286-ed0c-440a-8e08-19dcb6875e49))
  (fp_line (start -6.1 2) (end -6.1 7.5) (layer "F.SilkS") (width 0.12) (tstamp c890fcf2-e9cb-44f1-b783-740d8c103e34))
  (fp_circle (center -3 -9) (end -2.7 -9) (layer "F.SilkS") (width 0.12) (fill solid) (tstamp 6ae1d5d2-88a4-47dd-9b4a-353aa0d4cf48))
  (fp_rect (start -9 -10) (end 9 8.5) (layer "F.CrtYd") (width 0.05) (fill none) (tstamp 94573135-323a-4cb1-9c2f-7f100dfd8127))
  (fp_rect (start 6 8) (end -6 -8) (layer "F.Fab") (width 0.1) (fill none) (tstamp 059e849a-97a4-41b6-8d15-6c55a9285d7f))
  (pad "" np_thru_hole circle (at -2.75 -1) (size 1.4 1.4) (drill 1.4) (layers *.Mask) (tstamp 10b46217-ee16-41df-985e-6e2acf27596a))
  (pad "" np_thru_hole circle (at 2.75 -1) (size 1.4 1.4) (drill 1.4) (layers *.Mask) (tstamp 4a8a4d85-2e4d-4d51-8a1a-f23862462b19))
  (pad "1" smd roundrect (at -1.875 -8) (size 0.7 3) (layers "F.Cu" "F.Paste" "F.Mask") (roundrect_rratio 0.1428571429) (tstamp 96c131c7-617c-4f06-a5c5-334c2af9164d))
  (pad "2" smd roundrect (at -0.625 -8) (size 0.7 3) (layers "F.Cu" "F.Paste" "F.Mask") (roundrect_rratio 0.1428571429) (tstamp a776b832-923a-4199-a51f-69a42b1ba794))
  (pad "3" smd roundrect (at 0.625 -8) (size 0.7 3) (layers "F.Cu" "F.Paste" "F.Mask") (roundrect_rratio 0.1428571429) (tstamp 402bc6a6-e964-4b6c-bca9-d6b504ed1baf))
  (pad "4" smd roundrect (at 1.875 -8) (size 0.7 3) (layers "F.Cu" "F.Paste" "F.Mask") (roundrect_rratio 0.1428571429) (tstamp d3f483c1-2e47-4d0b-a561-50f7084fe49a))
  (pad "5" smd roundrect (at -6.8 -1.58) (size 3.4 6.04) (layers "F.Cu" "F.Paste" "F.Mask") (roundrect_rratio 0.05882352941) (tstamp 18ca18b1-38c6-4147-b92a-1949331f3b3d))
  (pad "5" smd roundrect (at 6.8 -1.58) (size 3.4 6.04) (layers "F.Cu" "F.Paste" "F.Mask") (roundrect_rratio 0.05882352941) (tstamp 97053dd9-18d4-4021-a549-bc791687dd30))
  (model "${KIPRJMOD}/USB-B-S-RA-TSMT.step"
    (offset (xyz 0 -8 0.5))
    (scale (xyz 1 1 1))
    (rotate (xyz 0 0 0))
  )
)
