EESchema Schematic File Version 4
EELAYER 30 0
EELAYER END
$Descr A4 11693 8268
encoding utf-8
Sheet 1 1
Title ""
Date ""
Rev ""
Comp ""
Comment1 ""
Comment2 ""
Comment3 ""
Comment4 ""
$EndDescr
$Comp
L Connector:Conn_01x04_Male J1
U 1 1 62086AB6
P 4650 3500
F 0 "J1" H 4758 3689 50  0000 C CNN
F 1 "Conn_01x04_Male" H 4758 3690 50  0001 C CNN
F 2 "Connector_PinHeader_2.54mm:PinHeader_1x04_P2.54mm_Vertical" H 4650 3500 50  0001 C CNN
F 3 "~" H 4650 3500 50  0001 C CNN
	1    4650 3500
	1    0    0    -1  
$EndComp
$Comp
L Mechanical:MountingHole H1
U 1 1 6208CD3B
P 4750 3150
F 0 "H1" H 4850 3150 50  0000 L CNN
F 1 "MountingHole" H 4850 3105 50  0001 L CNN
F 2 "MountingHole:MountingHole_2mm" H 4750 3150 50  0001 C CNN
F 3 "~" H 4750 3150 50  0001 C CNN
	1    4750 3150
	1    0    0    -1  
$EndComp
$Comp
L Mechanical:MountingHole H3
U 1 1 6208F513
P 5950 3150
F 0 "H3" H 6050 3150 50  0000 L CNN
F 1 "MountingHole" H 6050 3105 50  0001 L CNN
F 2 "MountingHole:MountingHole_2mm" H 5950 3150 50  0001 C CNN
F 3 "~" H 5950 3150 50  0001 C CNN
	1    5950 3150
	1    0    0    -1  
$EndComp
$Comp
L Mechanical:MountingHole H2
U 1 1 6208FCE4
P 5400 3950
F 0 "H2" H 5500 3950 50  0000 L CNN
F 1 "MountingHole" H 5500 3905 50  0001 L CNN
F 2 "MountingHole:MountingHole_2mm" H 5400 3950 50  0001 C CNN
F 3 "~" H 5400 3950 50  0001 C CNN
	1    5400 3950
	1    0    0    -1  
$EndComp
Text Notes 4250 3500 2    50   ~ 0
sprung contacts
Wire Notes Line style solid
	4250 3500 4600 3550
$Comp
L Connector:Conn_01x04_Female J2
U 1 1 62099471
P 6000 3500
F 0 "J2" H 6028 3476 50  0000 L CNN
F 1 "Conn_01x04_Female" H 6028 3385 50  0000 L CNN
F 2 "Connector_PinSocket_2.54mm:PinSocket_1x04_P2.54mm_Horizontal" H 6000 3500 50  0001 C CNN
F 3 "~" H 6000 3500 50  0001 C CNN
	1    6000 3500
	1    0    0    -1  
$EndComp
Wire Wire Line
	5800 3400 4850 3400
Wire Wire Line
	4850 3500 5800 3500
Wire Wire Line
	5800 3600 4850 3600
Wire Wire Line
	4850 3700 5800 3700
$EndSCHEMATC
