../Inc/core_cm4.h:1688:22:__NVIC_EnableIRQ	16	static
../Inc/core_cm4.h:1816:22:__NVIC_SetPriority	16	static
../Src/buttons.c:4:6:buttons_setup	8	static
../Src/buttons.c:80:16:create_button_state	24	static
../Src/buttons.c:93:11:buttons_get_state	64	static
../Src/buttons.c:143:6:EXTI0_IRQHandler	8	static
../Src/buttons.c:153:6:EXTI1_IRQHandler	8	static
../Src/buttons.c:184:6:EXTI2_IRQHandler	4	static
../Src/buttons.c:205:6:EXTI4_IRQHandler	4	static
