../Src/timers.c:3:6:timer_setup	16	static
../Src/timers.c:28:6:timer_onepulse	16	static
../Src/timers.c:35:6:timer_enable	16	static
../Src/timers.c:40:6:timer_disable	16	static
../Src/timers.c:45:6:timer_PSC	16	static
../Src/timers.c:50:6:timer_ARR	16	static
../Src/timers.c:55:6:timer_CCR2	16	static
